<?xml version="1.0" encoding="UTF-8"?>
<svg width="300" height="157" version="1.1" viewBox="0 0 300 157" xmlns="http://www.w3.org/2000/svg">
 <text x="37.091438" y="145.20607" fill="#000000" font-family="'Liberation Sans',Arial,sans-serif" font-size="6px" stroke-width="1pt" style="line-height:0%" xml:space="preserve"><tspan x="37.091438" y="145.20607" style="line-height:1.4">Dimensionando retângulos com cantos arredondados </tspan><tspan x="37.091438" y="153.54851" style="line-height:1.4">com "Dimensionar cantos arredondados em retângulos" DESATIVADO</tspan></text>
 <rect x="69.228" y=".32251" width="196.91" height="122.77" rx="6.6372" ry="16.97" fill="#00f" fill-opacity=".11037" fill-rule="evenodd" stroke="#000" stroke-dasharray="0.625, 1.25" stroke-width=".625"/>
 <rect x="69.228" y=".32092" width="196.91" height="63.106" rx="6.6372" ry="16.97" fill="#00f" fill-opacity=".11037" fill-rule="evenodd" stroke="#000" stroke-dasharray="0.625, 1.25" stroke-width=".625"/>
 <rect x="114.8" y=".32849" width="151.47" height="105.78" rx="6.6372" ry="16.97" fill="#00f" fill-opacity=".11037" fill-rule="evenodd" stroke="#000" stroke-dasharray="0.625, 1.25" stroke-width=".625"/>
 <rect x="183.43" y=".32092" width="82.83" height="63.106" rx="6.6372" ry="16.97" fill="#ff0004" fill-opacity=".75" fill-rule="evenodd" stroke="#000" stroke-width=".625"/>
 <rect x="205.56" y=".33191" width="60.756" height="55.115" rx="6.6371" ry="16.97" fill="#00f" fill-opacity=".11037" fill-rule="evenodd" stroke="#000" stroke-dasharray="0.625, 1.25" stroke-width=".625"/>
 <rect x="218.34" y=".33081" width="47.954" height="149.52" rx="6.6372" ry="16.97" fill="#00f" fill-opacity=".11037" fill-rule="evenodd" stroke="#000" stroke-dasharray="0.625, 1.25" stroke-width=".625"/>
 <rect x="227.64" y=".31225" width="38.352" height="28.79" rx="6.6371" ry="16.97" fill="#00f" fill-opacity=".11037" fill-rule="evenodd" stroke="#000" stroke-dasharray="0.625, 1.25" stroke-width=".625"/>
 <rect x="36.352" y=".35815" width="229.82" height="41.087" rx="6.6371" ry="16.97" fill="#00f" fill-opacity=".11037" fill-rule="evenodd" stroke="#000" stroke-dasharray="0.625, 1.25" stroke-width=".625"/>
</svg>
