<svg width="340" height="283" version="1.1" viewBox="0 0 340 283" xmlns="http://www.w3.org/2000/svg" xmlns:xlink="http://www.w3.org/1999/xlink">
 <defs>
  <filter id="fe" x="-.0061708" y="-.0058384" width="1.0123" height="1.0117" color-interpolation-filters="sRGB">
   <feGaussianBlur stdDeviation="1.4349239"/>
  </filter>
  <linearGradient id="fp" x1="112.8" x2="359.44" y1="242.17" y2="-31.919" gradientTransform="matrix(.59867 0 0 .59867 -55.025 -211.88)" gradientUnits="userSpaceOnUse">
   <stop stop-color="#1ba2b1" stop-opacity=".60455" offset="0"/>
   <stop stop-color="#168997" stop-opacity="0" offset="1"/>
  </linearGradient>
  <filter id="fw" color-interpolation-filters="sRGB">
   <feFlood flood-color="rgb(0,0,0)" flood-opacity=".35686" result="flood"/>
   <feComposite in="flood" in2="SourceGraphic" operator="in" result="composite1"/>
   <feGaussianBlur in="composite1" result="blur" stdDeviation="1.5"/>
   <feOffset dx="1" dy="1" result="offset"/>
   <feComposite in="SourceGraphic" in2="offset" result="composite2"/>
  </filter>
  <linearGradient id="fq" x1="68.192" x2="68.192" y1="238.23" y2="259.98" gradientTransform="matrix(2.1933 0 0 2.1933 .2613 -486.98)" gradientUnits="userSpaceOnUse">
   <stop offset="0"/>
   <stop stop-color="#fff" offset="1"/>
  </linearGradient>
  <mask id="fo" maskUnits="userSpaceOnUse">
   <rect x=".26131" y=".1999" width="197.31" height="164.23" fill="url(#fq)"/>
  </mask>
  <path id="icon-credits-authors" style="fill:#fff;filter:url(#fw)" d="m 1.179,-7.55263 c 0.38185,0.0571 1.4477,0.2793 2.29111,0.34204 v 0 c 1.0273,0.0763 2.15738,0.0113 3.43668,0 v 0 c 1.61776,-0.0151 4.88009,0.17878 5.49488,-0.0937 v 0 c 0.15302,-0.0677 0.19409,-0.20711 0.23291,-0.24831 -0.0388,-0.0412 -0.0799,-0.18066 -0.23291,-0.24832 v 0 c -0.61479,-0.2725 -3.87712,-0.0798 -5.49488,-0.0937 v 0 c -1.2793,-0.0113 -2.40938,-0.0763 -3.43668,0 v 0 C 2.6267,-7.83192 1.56085,-7.60964 1.179,-7.55257 Z m 5.2e-4,2.46988 c 0.35908,-0.003 1.35083,0.0933 2.11243,0.11452 v 0 c 0.92663,0.0265 1.94144,-0.0404 3.09798,0.004 v 0 c 1.52508,0.0601 4.30482,0.52191 4.98615,0.19162 v 0 c 0.16609,-0.0805 0.20124,-0.25965 0.24069,-0.31143 -0.0397,-0.0522 -0.0739,-0.23017 -0.23588,-0.31332 v 0 C 10.90269,-5.64305 7.81456,-5.58409 6.41894,-5.64759 v 0 C 5.2426,-5.70089 4.21346,-5.78176 3.25485,-5.65159 v 0 c -0.8671,0.11679 -1.65521,0.42599 -2.07533,0.5684 z m 5.3e-4,2.46988 c 0.3372,-0.0646 1.25901,-0.096 1.93744,-0.11452 v 0 c 0.15048,-0.004 0.30233,-0.0113 0.45747,-0.0151 v 0 c 0.70705,-0.0265 1.43758,-0.0506 2.29504,0.0265 h 10e-6 c 0.61504,0.0552 1.49775,0.22148 2.33094,0.34319 v 0 c 0.9285399,0.1353 1.7363199,0.18784 2.08224,0.0574 v 0 c 0.19324,-0.0729 0.26431,-0.24718 0.31578,-0.29707 -0.0514,-0.0503 -0.11997,-0.22299 -0.3014,-0.30501 v 0 C 10.02538,-3.04031 9.1659299,-3.10759 8.297,-3.1862 v 0 C 7.47175,-3.2607 6.56562,-3.33436 5.93416,-3.39672 v 0 c -0.87179,-0.0862 -1.6559,-0.16177 -2.41131,-0.0839 v 0 c -0.16597,0.0189 -0.32843,0.0416 -0.48696,0.0745 v 0 c -0.81817,0.17046 -1.47312,0.5726 -1.85584,0.7934 z m 5.3e-4,2.46992 c 0.25216,-0.10318 0.65408,-0.21392 1.143,-0.28006 v 0 c 0.22829,-0.0302 0.42103,-0.0465 0.62398,-0.0658 v 0 c 0.1311,-0.0113 0.2642,-0.0227 0.39791,-0.034 v 0 c 0.60726,-0.0476 1.24415,-0.0639 2.00064,0.0529 v 0 c 0.5342,0.0824 1.3111,0.30879 2.06088,0.48514 v 0 c 0.88697,0.20863 1.6593799,0.29405 1.9631399,0.14514 v 0 c 0.15175,-0.0745 0.17825,-0.25286 0.21104,-0.30237 -0.0336,-0.051 -0.0572,-0.22564 -0.19264,-0.30879 v 0 C 9.1898399,-0.57321 8.37442,-0.66921 7.56925,-0.7996 v 0 C 6.83126,-0.91941 6.01435,-1.05359 5.45335,-1.14505 v 0 C 4.66663,-1.27355 3.95279,-1.36426 3.25835,-1.2573 v 0 c -0.15237,0.0227 -0.3013,0.0563 -0.44596,0.0994 v 0 c -0.21396,0.0643 -0.43297,0.1595 -0.64584,0.27817 v 0 c -0.46647,0.26003 -0.79063,0.565 -0.98597,0.73792 z M 1.1811,2.32694 C 1.41508,2.17084 1.79241,1.98338 2.23442,1.86327 v 0 C 2.43606,1.80847 2.61247,1.77637 2.78303,1.7461 v 0 C 2.89539,1.7272 3.00783,1.7083 3.12055,1.6951 v 0 C 3.38361,1.6611 3.6565,1.6467 3.9511,1.6611 v 0 c 0.27202,0.0113 0.55744,0.0472 0.86602,0.11301 v 0 c 0.47172,0.10015 1.16133,0.32957 1.82357,0.50717 v 0 c 0.75507,0.20258 1.33527,0.26797 1.64946,0.19654 v 0 C 8.44245,2.44382 8.52134,2.35423 8.5633699,2.3289 8.5195699,2.3024 8.44773,2.21627 8.31096,2.16223 v 0 C 8.07299,2.06853 7.48416,1.93697 6.81385,1.70948 v 0 C 6.06016,1.4536 5.61328,1.27963 4.97763,1.1091 v 0 C 4.64745,1.0207 4.32708,0.95074 4.00668,0.91786 v 0 c -0.34915,-0.034 -0.68935,-0.0265 -1.0174,0.048 v 0 C 2.84968,0.99606 2.71407,1.03956 2.5835,1.09398 v 0 C 2.38961,1.17448 2.19634,1.2909 2.01178,1.43527 v 0 C 1.61083,1.7486 1.34297,2.11854 1.1811,2.32894 Z m 5.3e-4,2.46988 C 1.39461,4.58781 1.74686,4.31943 2.14595,4.14266 v 0 C 2.32645,4.06256 2.48197,4.01491 2.62442,3.97485 v 0 c 0.0929,-0.0265 0.18433,-0.0491 0.27633,-0.0676 v 0 c 0.21196,-0.0427 0.42826,-0.0635 0.66487,-0.048 v 0 c 0.23282,0.0151 0.47385,0.0658 0.71611,0.1508 v 0 c 0.48347,0.1697 1.01561,0.50363 1.5357,0.70742 v 0 c 0.11403,0.0446 0.2267,0.0828 0.33785,0.11225 v 0 c 0.16675,0.0438 0.34992,0.0703 0.53164,0.0775 v 0 C 7.09991,4.92232 7.37445,4.84222 7.54557,4.79648 7.36607,4.74768 7.13594,4.63358 6.82019,4.4412 v 0 C 6.6858,4.3596 6.53884,4.26659 6.40646,4.19326 v 0 C 6.31586,4.14296 6.21782,4.09235 6.1154,4.04132 v 0 C 5.65562,3.81342 5.04893,3.55418 4.50832,3.36434 v 0 C 4.23561,3.26874 3.94732,3.17763 3.64419,3.13492 v 0 c -0.31228,-0.0438 -0.62583,-0.034 -0.9291,0.0571 v 0 C 2.58573,3.23092 2.46294,3.28352 2.34868,3.34849 v 0 C 2.17592,3.44709 2.01034,3.58509 1.85633,3.75373 v 0 C 1.52526,4.11657 1.31248,4.54955 1.18163,4.7962 Z M 9.7110199,0.18277 c -0.699,1.36985 -0.20128,1.66795 -0.1624,1.94926 -0.42596,1.00894 -0.97332,2.05474 -1.4308399,2.99089 1.0389699,-0.19729 1.3551299,-1.95919 1.91151,-2.56029 1.55695,0.0661 2.73326,-0.56568 3.56322,-1.61193 -0.3976,-0.24378 -1.51675,-0.51315 -1.51675,-0.51315 0.77404,-0.33827 1.37952,-0.11187 1.9114,-0.0567 0.76726,-1.26947 1.14002,-2.96254 1.16104,-4.72497 0.002,-0.14552 -0.24797,-0.12775 -1.0564,-0.34848 0.74971,-0.19804 1.04719,-0.34847 1.04082,-0.47807 -0.0626,-1.27166 -0.3023,-2.55054 -0.70327,-3.70632 -2.01311,3.46753 -3.49829,6.66909 -4.7183201,9.06002 z" />
  <path id="icon-credits-translators" style="fill:#fff;filter:url(#fw)" d="m 7.79071,-7.9915142 c -0.23275,0.0113 -0.44046,0.0472 -0.62891,0.127 -0.18844,0.0798 -0.37138,0.21807 -0.45703,0.42772 -0.0791,0.19352 -0.0521,0.40562 0.0156,0.58205 0.0677,0.17651 0.17743,0.33373 0.31641,0.48828 0.16786,0.18671 0.39331,0.36661 0.64453,0.54297 l -0.43945,0.85353 1.7499999,-0.48439 -0.45703,-1.78711 c 0.22501,0.034 0.46655,0.0828 0.7246,0.15232 l 0.1836,-0.67971 c -0.61905,-0.16706 -1.1868499,-0.24492 -1.6523499,-0.22262 z m 4.57617,0.37493 -1.75,0.48439 0.5,1.94921 0.45703,-0.88868 c 0.30806,0.20561 0.56304,0.41465 0.70508,0.58398 0.16794,0.20031 0.16034,0.29934 0.16211,0.2948 10e-4,-0.003 -0.0131,0.0227 -0.11133,0.0586 -0.0982,0.034 -0.26693,0.0586 -0.48047,0.0586 -0.42707,5.7e-4 -1.02484,-0.10318 -1.67578,-0.31068 l -0.2128901,0.67189 c 0.7042601,0.22488 1.3535201,0.34054 1.8886701,0.33978 0.26758,-3.4e-4 0.5116,-0.0265 0.72461,-0.10356 0.21301,-0.0775 0.42105,-0.2177 0.51563,-0.4492 0.14769,-0.36132 -0.0275,-0.72083 -0.27149,-1.01174 -0.21952,-0.26192 -0.54276,-0.51587 -0.92187,-0.75976 z m -4.53906,0.32013 c 0.16527,-0.008 0.36887,0.008 0.5918,0.0378 l -0.41602,0.81055 c -0.18623,-0.13795 -0.34215,-0.27175 -0.44922,-0.39065 -0.10013,-0.1115 -0.16211,-0.20485 -0.18555,-0.2657 -0.0234,-0.0609 -0.0127,-0.0688 -0.0137,-0.0665 -0.001,0.002 0.003,-0.0189 0.0801,-0.0525 0.0766,-0.034 0.21532,-0.0639 0.39258,-0.0722 z m 2.66653,-1.72717 -5.66754,14.15694 0.67389,0.27137 5.66343,-14.16102 z m 0.75352,5.03785 v 1.44922 H 9.1680699 l -0.24787,0.62513 h 0.0989 c 0.48857,1.36294008 1.1578001,2.51977008 2.0406601,3.45404 -0.91715,0.75428 -2.0400501,1.30284 -3.40291,1.69712 0.13714,0.14589 0.34226,0.45452 0.40226,0.60884 1.3800099,-0.44576 2.53724,-1.03706 3.4801,-1.84282 0.94286,0.84858 2.10846,1.46551 3.5399,1.83409 0.0943,-0.17991 0.30016,-0.47078 0.45444,-0.6164 -1.38857,-0.3258 -2.54581,-0.90853 -3.4801,-1.69712 0.89144,-0.90001992 1.56865,-2.03194992 2.07437,-3.43775 h 1.31985 v -0.62513 h -3.55621 v -1.44922 z M 3.38639,-2.4495542 1,3.7995958 h 0.8915 l 0.56968,-1.60358 H 5.2781 l 0.10546,0.29896 0.43052,-1.08831 -1.46988,-3.85626 z m 6.3361499,0.53813 H 13.39073 c -0.43715,1.20858008 -1.03682,2.19485008 -1.8254,2.99203 -0.81429,-0.83149992 -1.42279,-1.84342992 -1.8427901,-2.99203 z m -5.8588799,0.29443 1.15025,3.11043 H 2.71667 Z" />
  <path id="icon-credits-designer" style="fill:#fff;filter:url(#fw)" d="m 14.666977,-8.87709 c -0.18551,1.25802 -2.57351,0.92568 -1.75427,3.59274 l 0.49516,0.28233 c 1.94483,-0.58091 1.75645,-2.08747 1.25911,-3.87477 z m -1.79306,3.65473 c -0.55365,0.52728 -1.10649,1.42696 -1.63072,2.45869 0.41239,0.2453 0.85669,0.43926 1.31684,0.6079 0.41021,-1.0018 0.72097,-1.95677 0.82438,-2.7744 l -0.36439,-0.21808 z m -1.71731,2.62647 c -0.88697,1.78113997 -1.6845101,3.92281 -2.2476501,5.2944 -0.2588,0.63031 -0.8895999,2.02586 -0.6205399,2.42441 0.6342399,-0.0597 1.2925999,-1.32381 1.61268,-1.92294 0.83034,-1.56269 1.86101,-3.44077003 2.59219,-5.1862 -0.46284,-0.16705 -0.91401,-0.36094 -1.33668,-0.60967 z m -5.69009,-6.28003 c -1.51863,-0.034 -2.69797,0.62283 -3.4375,1.64844 -0.73953,1.02562 -1.06776998,2.3935 -1.02539,3.8242 0.0847,2.86147997 1.65571,6.04233 4.69141,7.2598 0.47705,0.19124 0.96154,0.0488 1.25195,-0.24794 0.29039,-0.29669 0.45756,-0.6997 0.61328,-1.09572 0.15571,-0.39598 0.29769,-0.79348 0.44336,-1.08008 0.14573,-0.28649 0.27272,-0.4046 0.3554699,-0.41798 l 0.0273,-0.002 0.0313,-0.0113 c 0.19015,-0.0627 0.27464,-0.0529 0.40234,0.0839 0.12771,0.13682 0.27672,0.47267 0.32618,1.06836 0.0543,0.6556 0.53121,1.21912 1.1835901,1.38478 0.65248,0.16554 1.44802,-0.12737 2.0332,-1.00978 1.54847,-2.33488003 1.04003,-5.19526 -0.44336,-7.43165 -0.74168,-1.11809 -1.7235,-2.09797 -2.8378901,-2.80656 C 7.967407,-8.41804 6.724197,-8.85023 5.466527,-8.8774 Z m -0.0176,0.70311 c 2.20597,0.0476 4.51028,1.58808 5.88476,3.66017 1.37445,2.07216 1.81535,4.59926997 0.45117,6.65624 -0.47429,0.71516 -0.9308,0.8121 -1.2832,0.72268 C 10.149287,2.77668 9.867317,2.43708 9.839537,2.10062 9.782937,1.41717 9.6247069,0.93188 9.3258669,0.61236 9.0366269,0.30318997 8.6005069,0.23969997 8.230167,0.34665997 7.812337,0.42976 7.554497,0.76826 7.376647,1.11814 c -0.18256,0.35905 -0.3183,0.77378 -0.46484,1.14648 -0.14653,0.37266 -0.31012,0.69146 -0.46289,0.84767 -0.15281,0.15609 -0.22001,0.20372 -0.49415,0.0937 -2.71939,-1.09058 -4.17436,-4.00872003 -4.25195,-6.62887 -0.0388,-1.3101 0.27233,-2.52579 0.89453,-3.38869 0.62219,-0.86287 1.5358,-1.38966 2.85157,-1.36135 z m -0.8125,0.8711 c -0.38962,-0.0427 -0.79003,0.14589 -0.99415,0.50585 -0.27217,0.47982 -0.1028,1.09701 0.37696,1.36914 0.47975,0.27212 1.09696,0.10091 1.36914,-0.3789 0.27216,-0.47977 0.10476,-1.10283 -0.375,-1.37499 -0.11994,-0.068 -0.24708,-0.10696 -0.37695,-0.12095 z m 2.42773,0.20523 c -0.38859,-0.0446 -0.78612,0.14022 -0.99023,0.49999 -0.27216,0.47978 -0.10085,1.09701 0.3789,1.36914 0.47976,0.27212 1.10284,0.10658 1.375,-0.37304 0.27216,-0.47974 0.095,-1.1009 -0.38476,-1.37303 -0.11994,-0.068 -0.24938,-0.10809 -0.37891,-0.12321 z m -2.63281,0.4961 c 0.0761,-0.0227 0.16075,-0.0151 0.23632,0.0302 0.15115,0.0858 0.20242,0.27364 0.11719,0.42383 -0.0852,0.15005 -0.26877,0.19503 -0.41992,0.10923 -0.15115,-0.0858 -0.20437,-0.2657 -0.11914,-0.41601 0.0426,-0.0752 0.10945,-0.12548 0.18555,-0.14665 z m 2.43359,0.20523 c 0.0736,-0.0189 0.15685,-0.0113 0.23242,0.0302 0.15115,0.0858 0.20437,0.2657 0.11914,0.41601 -0.0852,0.15005 -0.27072,0.20296 -0.42187,0.11716 -0.15115,-0.0858 -0.19655,-0.26759 -0.11133,-0.41794 0.0426,-0.0752 0.10803,-0.12585 0.18164,-0.14664 z m 2.0742199,0.99024 c -0.38962,-0.0427 -0.7900199,0.14778 -0.9941399,0.50781 -0.27218,0.47978 -0.10085,1.09697 0.37891,1.36914 0.4797499,0.27212 1.0969599,0.10091 1.3691399,-0.3789 0.2721601,-0.47977 0.10475,-1.10287 -0.37501,-1.37499 -0.11994,-0.068 -0.24903,-0.10885 -0.3789,-0.12321 z m -5.6621099,0.0469 c -0.38859,-0.0446 -0.78612,0.14211 -0.99023,0.50196 -0.27216,0.47977 -0.10085,1.09504 0.3789,1.36721 0.47976,0.27212 1.09503,0.1028 1.36719,-0.37682 0.27216,-0.47977 0.1028,-1.09697 -0.37695,-1.36913 -0.11994,-0.068 -0.24938,-0.1081 -0.37891,-0.12322 z m 5.4589799,0.65624 c 0.0761,-0.0227 0.16076,-0.0151 0.23633,0.0302 0.15115,0.0858 0.1946,0.26948 0.10938,0.4199 -0.0852,0.15005 -0.26096,0.19918 -0.41211,0.11339 -0.15115,-0.0858 -0.20632,-0.2657 -0.12109,-0.41601 0.0426,-0.0752 0.11139,-0.12548 0.18749,-0.14665 z m -5.6562499,0.045 c 0.0736,-0.0189 0.1549,-0.0113 0.23047,0.0302 0.15115,0.0858 0.20437,0.26759 0.11914,0.41794 -0.0852,0.15043 -0.26682,0.19503 -0.41796,0.10923 -0.15115,-0.0858 -0.19851,-0.26192 -0.11329,-0.41208 0.0426,-0.0752 0.10804,-0.12586 0.18164,-0.14664 z m 0.57422,1.64258 c -0.38858,-0.0446 -0.78611,0.14211 -0.99023,0.50196 -0.27218,0.47977 -0.1028,1.09504 0.37695,1.36717 0.47976,0.27211997 1.10282,0.10696 1.375,-0.37304 0.27216,-0.47977 0.0969,-1.1009 -0.38281,-1.37307 -0.11994,-0.068 -0.24938,-0.10809 -0.37891,-0.12283 z m -0.0801,0.6875 c 0.0394,0.004 0.0774,0.0189 0.11523,0.0389 0.15115,0.0858 0.20241,0.27363 0.11719,0.42383 -0.0852,0.15043 -0.26682,0.19503 -0.41797,0.10923 -0.15115,-0.0858 -0.20046,-0.26192 -0.11523,-0.41212 0.0639,-0.11263 0.18245,-0.17348 0.30078,-0.16025 z m 1.65429,1.24218 c -0.20402,0.008 -0.40736,0.062 -0.59765,0.16780997 -0.76112,0.42327 -0.91852,1.45844003 -0.46289,2.27539003 0.4556,0.81702 1.42047,1.23001 2.18164,0.80666 0.76112,-0.42327 0.91263,-1.45644 0.45703,-2.27346003 -0.34172,-0.6127 -0.96605,-1.00002997 -1.57813,-0.97654997 z m 0.043,0.70313997 c 0.32247,-0.004 0.69367,0.20598 0.92188,0.61523 C 6.497327,0.77974 6.365927,1.3529 6.007507,1.5522 5.649027,1.75176 5.085297,1.5635 4.780947,1.01902 c -0.30428,-0.54588 -0.16698,-1.12297003 0.1914,-1.32227003 0.0896,-0.0499 0.19134,-0.0767 0.29883,-0.0782 z" />
 </defs>
 <g transform="translate(0 -222.12)">
  <g transform="matrix(1.7232 0 0 1.7232 -.45028 221.78)" enable-background="new" mask="url(#fo)">
   <g transform="translate(0 -61.119)">
    <rect x="2.8422e-14" y="61.119" width="198.44" height="165.36" fill="#fff" style="paint-order:stroke fill markers"/>
   </g>
   <g transform="matrix(1 0 0 -1 0 227.05)">
    <rect transform="scale(1,-1)" x="-16.24" y="-230.95" width="222.26" height="173.74" fill="url(#fp)" fill-rule="evenodd" style="paint-order:stroke fill markers"/>
   </g>
   <g transform="matrix(-1 0 0 1 189.56 -8.2276)" fill="#fff">
    <path d="m153.31 106.27 77.783 45.288-77.877 45.125-77.877-45.288z" fill-opacity=".1982"/>
    <path d="m62.301 113.99 64.912 37.541-77.877 45.125-65.006-37.541z" fill-opacity=".1982"/>
    <path d="m49.323 106.39 12.932 7.6295-77.877 45.125-13.027-7.6295z" fill-opacity=".37838"/>
    <path d="m36.391 98.921 12.932 7.6295-77.877 45.125-13.027-7.6296z" fill-opacity=".54955"/>
    <path d="m23.364 91.291 12.932 7.6295-77.877 45.125-13.027-7.6295z" fill-opacity=".6982"/>
    <path d="m10.431 83.824 12.932 7.6295-77.877 45.125-13.027-7.6295z" fill-opacity=".86036"/>
    <path d="m-2.501 76.195 12.932 7.6295-77.877 45.125-13.027-7.6295z"/>
    <path d="m231.15 106.38 77.783 45.288-77.877 45.125-77.877-45.288z" fill-opacity=".1982"/>
    <path d="m-54.395 106.23 77.783 45.288-77.877 45.125-77.877-45.288z" fill-opacity=".1982"/>
   </g>
   <g transform="translate(0 -61.119)" opacity=".8" stroke-width="1.1541" style="mix-blend-mode:screen">
    <g id="fa" transform="matrix(2.9866 0 0 2.9866 -364.65 -77.684)" stroke-width="1.1541">
     <path transform="scale(.26458)" d="m425.51 194.58 13.094 7.56" fill="none" stroke="#0ff" stroke-width=".27483"/>
     <path transform="scale(.26458)" d="m445.15 205.92 13.093 7.5588" fill="none" stroke="#0ff" stroke-width=".27483"/>
     <path transform="scale(.26458)" d="m425.51 213.48 13.094-7.56" fill="none" stroke="#0ff" stroke-width=".27483"/>
     <path transform="scale(.26458)" d="m445.15 202.14 13.093-7.5588" fill="none" stroke="#0ff" stroke-width=".27483"/>
     <circle cx="116.91" cy="53.983" r=".18678" fill="#0ff" fill-rule="evenodd" opacity="1" style="paint-order:stroke fill markers"/>
    </g>
    <use transform="translate(25.959)" xlink:href="#fa"/>
    <use transform="translate(25.959 15.096)" xlink:href="#fa"/>
    <use transform="translate(25.959 30.192)" xlink:href="#fa"/>
    <use transform="translate(25.959 45.288)" xlink:href="#fa"/>
    <use transform="translate(25.959 60.385)" xlink:href="#fa"/>
    <use transform="translate(25.959 75.481)" xlink:href="#fa"/>
    <use transform="translate(25.959 90.577)" xlink:href="#fa"/>
    <use transform="translate(25.959 105.67)" xlink:href="#fa"/>
    <use transform="translate(25.959 120.77)" xlink:href="#fa"/>
    <use transform="translate(25.959 135.87)" xlink:href="#fa"/>
    <use transform="translate(51.918)" xlink:href="#fa"/>
    <use transform="translate(51.918 15.096)" xlink:href="#fa"/>
    <use transform="translate(51.918 30.192)" xlink:href="#fa"/>
    <use transform="translate(51.918 45.288)" xlink:href="#fa"/>
    <use transform="translate(51.918 60.385)" xlink:href="#fa"/>
    <use transform="translate(51.918 75.481)" xlink:href="#fa"/>
    <use transform="translate(51.918 90.577)" xlink:href="#fa"/>
    <use transform="translate(51.918 105.67)" xlink:href="#fa"/>
    <use transform="translate(51.918 120.77)" xlink:href="#fa"/>
    <use transform="translate(51.918 135.87)" xlink:href="#fa"/>
    <use transform="translate(77.877)" xlink:href="#fa"/>
    <use transform="translate(77.877 15.096)" xlink:href="#fa"/>
    <use transform="translate(77.877 30.192)" xlink:href="#fa"/>
    <use transform="translate(77.877 45.288)" xlink:href="#fa"/>
    <use transform="translate(77.877 60.385)" xlink:href="#fa"/>
    <use transform="translate(77.877 75.481)" xlink:href="#fa"/>
    <use transform="translate(77.877 90.577)" xlink:href="#fa"/>
    <use transform="translate(77.877 105.67)" xlink:href="#fa"/>
    <use transform="translate(77.877 120.77)" xlink:href="#fa"/>
    <use transform="translate(77.877 135.87)" xlink:href="#fa"/>
    <use transform="translate(103.84)" xlink:href="#fa"/>
    <use transform="translate(103.84 15.096)" xlink:href="#fa"/>
    <use transform="translate(103.84 30.192)" xlink:href="#fa"/>
    <use transform="translate(103.84 45.288)" xlink:href="#fa"/>
    <use transform="translate(103.84 60.385)" xlink:href="#fa"/>
    <use transform="translate(103.84 75.481)" xlink:href="#fa"/>
    <use transform="translate(103.84 90.577)" xlink:href="#fa"/>
    <use transform="translate(103.84 105.67)" xlink:href="#fa"/>
    <use transform="translate(103.84 120.77)" xlink:href="#fa"/>
    <use transform="translate(103.84 135.87)" xlink:href="#fa"/>
    <use transform="translate(129.8)" xlink:href="#fa"/>
    <use transform="translate(129.8 15.096)" xlink:href="#fa"/>
    <use transform="translate(129.8 30.192)" xlink:href="#fa"/>
    <use transform="translate(129.8 45.288)" xlink:href="#fa"/>
    <use transform="translate(129.8 60.385)" xlink:href="#fa"/>
    <use transform="translate(129.8 75.481)" xlink:href="#fa"/>
    <use transform="translate(129.8 90.577)" xlink:href="#fa"/>
    <use transform="translate(129.8 105.67)" xlink:href="#fa"/>
    <use transform="translate(129.8 120.77)" xlink:href="#fa"/>
    <use transform="translate(129.8 135.87)" xlink:href="#fa"/>
    <use transform="translate(155.75)" xlink:href="#fa"/>
    <use transform="translate(155.75 15.096)" xlink:href="#fa"/>
    <use transform="translate(155.75 30.192)" xlink:href="#fa"/>
    <use transform="translate(155.75 45.288)" xlink:href="#fa"/>
    <use transform="translate(155.75 60.385)" xlink:href="#fa"/>
    <use transform="translate(155.75 75.481)" xlink:href="#fa"/>
    <use transform="translate(155.75 90.577)" xlink:href="#fa"/>
    <use transform="translate(155.75 105.67)" xlink:href="#fa"/>
    <use transform="translate(155.75 120.77)" xlink:href="#fa"/>
    <use transform="translate(155.75 135.87)" xlink:href="#fa"/>
    <use transform="translate(181.71)" xlink:href="#fa"/>
    <use transform="translate(181.71 15.096)" xlink:href="#fa"/>
    <use transform="translate(181.71 30.192)" xlink:href="#fa"/>
    <use transform="translate(181.71 45.288)" xlink:href="#fa"/>
    <use transform="translate(181.71 60.385)" xlink:href="#fa"/>
    <use transform="translate(181.71 75.481)" xlink:href="#fa"/>
    <use transform="translate(181.71 90.577)" xlink:href="#fa"/>
    <use transform="translate(181.71 105.67)" xlink:href="#fa"/>
    <use transform="translate(181.71 120.77)" xlink:href="#fa"/>
    <use transform="translate(181.71 135.87)" xlink:href="#fa"/>
    <use transform="translate(207.67)" xlink:href="#fa"/>
    <use transform="translate(207.67 15.096)" xlink:href="#fa"/>
    <use transform="translate(207.67 30.192)" xlink:href="#fa"/>
    <use transform="translate(207.67 45.288)" xlink:href="#fa"/>
    <use transform="translate(207.67 60.385)" xlink:href="#fa"/>
    <use transform="translate(207.67 75.481)" xlink:href="#fa"/>
    <use transform="translate(207.67 90.577)" xlink:href="#fa"/>
    <use transform="translate(207.67 105.67)" xlink:href="#fa"/>
    <use transform="translate(207.67 120.77)" xlink:href="#fa"/>
    <use transform="translate(207.67 135.87)" xlink:href="#fa"/>
    <use transform="translate(25.959 -14.933)" xlink:href="#fa"/>
    <use transform="translate(51.918 -14.933)" xlink:href="#fa"/>
    <use transform="translate(77.877 -14.933)" xlink:href="#fa"/>
    <use transform="translate(103.84 -14.933)" xlink:href="#fa"/>
    <use transform="translate(129.8 -14.933)" xlink:href="#fa"/>
    <use transform="translate(155.75 -14.933)" xlink:href="#fa"/>
    <use transform="translate(181.71 -14.933)" xlink:href="#fa"/>
    <use transform="translate(207.67 -14.933)" xlink:href="#fa"/>
    <use transform="translate(25.959 -29.915)" xlink:href="#fa"/>
    <use transform="translate(51.918 -29.915)" xlink:href="#fa"/>
    <use transform="translate(77.877 -29.915)" xlink:href="#fa"/>
    <use transform="translate(103.84 -29.915)" xlink:href="#fa"/>
    <use transform="translate(129.8 -29.915)" xlink:href="#fa"/>
    <use transform="translate(155.75 -29.915)" xlink:href="#fa"/>
    <use transform="translate(181.71 -29.915)" xlink:href="#fa"/>
    <use transform="translate(207.67 -29.915)" xlink:href="#fa"/>
   </g>
   <g transform="translate(0 12.74)">
    <g stroke-width="1.1541">
     <g transform="matrix(.85171 0 0 .85171 56.765 -7.3098)">
      <g transform="matrix(.1186 0 0 .1186 2.5104 81.944)" fill="#fff" filter="url(#fe)">
       <path d="m139.06 694.98c-0.24215-9.928-0.36322-15.497-0.36322-25.547s0-15.982 0.36322-26.152c0.24215-10.049 1.9372-10.412 10.412-11.018 0.72644-0.72644 0.72644-2.0582 0-2.7847-4.4797 0.24215-11.986 0.60537-15.618 0.60537s-11.865-0.36322-15.74-0.60537c-0.72644 0.72644-0.72644 2.0582 0 2.7847 8.4751 0.72644 10.412 0.96859 10.654 11.018 0.24215 10.049 0.36322 15.982 0.36322 26.031s-0.12107 15.618-0.36322 25.668c-0.24214 10.049-2.1793 10.654-10.654 11.018-0.72644 0.72644-0.72644 2.0582 0 2.7847 4.7219-0.24214 12.107-0.60536 15.74-0.60536s10.654 0.24214 15.618 0.60536c0.72644-0.72644 0.72644-2.0582 0-2.7847-8.4751-0.36322-10.17-0.96859-10.412-11.018z"/>
       <path d="m222.38 644.61 0.12107 42.012c0 2.3004-0.60537 3.6322-1.4529 3.6322-0.96859 0-2.3004-2.1793-5.8115-6.659l-41.528-53.514-15.618-0.24215c-0.72645 0.72644-0.72645 2.0582 0 2.7847 5.8115 0.36322 8.8384 4.2376 10.17 8.9594l-0.12108 52.062c0 10.776-2.0582 11.502-10.533 12.349-0.72644 0.72644-0.72644 2.0582 0 2.7847 5.9326-0.12107 7.9908-0.60536 13.076-0.60536 5.0851 0 6.9012 0.48429 12.955 0.60536 0.72644-0.72644 0.72644-2.0582 0-2.7847-8.4751-0.84751-10.533-1.3318-10.533-12.349l-0.12108-38.622c0-4.1165 0.60537-5.9326 1.574-5.9326 0.72644 0 2.0582 1.3318 4.1165 3.9954l42.255 53.393c1.3318 1.8161 2.9058 2.9058 4.8429 2.9058 1.695 0 1.4529-1.4529 1.4529-3.7533l0.12107-61.021c0-10.776 2.0582-11.502 10.533-12.35 0.72644-0.72644 0.72644-2.0582 0-2.7847-5.9326 0.12107-7.9908 0.60537-13.076 0.60537-5.0851 0-6.9012-0.4843-12.955-0.60537-0.72644 0.72644-0.72644 2.0582 0 2.7847 8.4752 0.84751 10.533 1.3318 10.533 12.35z"/>
       <path d="m265.81 694.98c-0.24215-9.6859-0.36322-15.255-0.36322-24.82 4.2376 0.12107 8.4751 2.0582 11.018 5.2062l19.009 23.973c2.4215 3.1479 4.1165 6.7801 4.3586 8.7173 0 0.36322 0.12107 0.72644 0.60537 0.72644 2.4215-0.12107 2.1793-0.60536 5.8115-0.60536 4.7219 0 7.7487 0.48429 13.439 0.60536 0.72644-0.72644 0.72644-2.0582 0-2.7847-2.1793-0.36322-7.7487-1.574-11.865-6.659l-26.515-31.479c-0.96859-1.0897-1.574-2.0582-1.574-3.0268 0-0.84752 0.12107-1.695 4.2376-5.9326l17.798-18.282c5.5694-5.9326 11.623-7.7487 16.466-8.3541 0.72644-0.72644 0.72644-2.0582 0-2.7847-5.6904 0.12107-7.8698 0.60537-12.713 0.60537s-8.5962-0.4843-14.287-0.60537c-0.72644 0.72644-0.72644 2.0582 0 2.7847 4.3586 0.36322 9.5648 2.4215 4.6008 7.8698l-19.372 21.309c-2.5426 2.7847-6.538 4.964-11.018 5.3272 0-8.4751 0.12107-14.287 0.36322-23.488 0.24215-10.049 2.0582-10.654 10.533-11.018 0.72644-0.72644 0.72644-2.0582 0-2.7847-5.9326 0.12107-9.6859 0.60537-15.861 0.60537-6.0537 0-9.4437-0.4843-15.497-0.60537-0.72644 0.72644-0.72644 2.0582 0 2.7847 8.4751 0.36322 10.17 0.96859 10.412 11.018s0.48429 15.982 0.48429 26.031-0.24214 15.618-0.48429 25.668c-0.24215 10.049-1.9372 10.654-10.412 11.018-0.72644 0.72644-0.72644 2.0582 0 2.7847 5.9326-0.12107 9.5648-0.60536 15.74-0.60536 6.0537 0 9.5648 0.48429 15.618 0.60536 0.72644-0.72644 0.72644-2.0582 0-2.7847-8.4751-0.36322-10.291-0.96859-10.533-11.018z"/>
       <path d="m368.54 631.78c-7.0223-0.96859-6.659-3.269-18.524-3.269-12.228 0-23.004 8.1119-23.004 20.946 0 11.381 7.9908 16.829 17.435 20.825 7.6276 3.3901 20.219 6.0537 20.219 19.856 0 9.807-5.8115 16.103-15.376 16.103-11.381 0-19.856-6.2958-22.52-18.403-1.4529-0.48429-1.574-0.24215-2.6636 0.36322 0.4843 9.3227 0.96859 12.471 2.4215 18.403 7.6276 0 10.897 2.7847 21.672 2.7847 5.5694 0 10.776-1.3318 15.013-3.8744 6.9012-4.3586 11.381-11.865 11.381-19.614 0-11.502-7.8698-16.95-16.708-20.704-5.8115-2.4215-22.52-7.1433-22.52-19.009 0-6.7801 6.4169-14.771 13.439-14.771 11.865 0 16.829 8.7173 19.251 16.708 1.3318 0 1.574 0.12107 2.6636-0.72644-0.36322-5.8115-0.84752-9.2016-2.1793-15.618z"/>
       <path d="m421.98 709.39c11.744 0 23.73-5.5694 31.963-16.345-0.60537-1.0897-1.4529-1.8161-2.7847-1.8161-8.5962 9.4437-16.829 13.197-28.089 13.197-18.766 0-28.21-19.009-28.21-36.685 0-19.735 12.592-35.959 27.847-35.959 16.708 0 23.851 11.139 26.999 21.551 1.0897 0.12107 1.8161 0 2.7847-0.60537-0.60537-6.2958-1.4529-12.107-2.6636-18.766-6.1748-0.60537-11.623-5.4483-26.515-5.4483-23.973 0-39.349 18.766-39.349 41.528 0 21.43 11.986 39.349 38.017 39.349z"/>
       <path d="m489.71 674.52c-2.6636 0-3.5111-0.96859-3.0268-2.1793l12.713-31.358h0.36322l11.623 33.537zm-13.681 25.304 7.2644-18.766c0.60537-1.574 1.3318-2.6636 4.2376-2.6636h25.304l7.6276 22.278c1.695 4.964-3.1479 4.964-8.9594 5.3272-0.72644 0.72644-0.72644 2.0582 0 2.7847 4.4797-0.12107 11.139-0.60536 15.861-0.60536 4.964 0 10.17 0.48429 14.65 0.60536 0.72644-0.72644 0.72644-2.0582 0-2.7847-4.7219-0.36322-8.7173-0.84751-10.897-7.0223l-25.304-70.465c-1.8161 1.0897-4.7219 2.4215-6.2958 2.4215l-28.089 66.106c-3.1479 7.3855-6.7801 8.5962-12.107 8.9594-0.72644 0.72644-0.72644 2.0582 0 2.7847 4.4797-0.12107 7.2644-0.60536 11.986-0.60536 4.964 0 8.5962 0.48429 13.076 0.60536 0.72644-0.72644 0.72644-2.0582 0-2.7847-4.6008-0.24214-10.291-1.0897-8.3541-6.1748z"/>
       <path d="m565.53 672.34c2.6636 0.84752 6.1748 1.0897 10.291 1.0897 22.035 0 28.331-13.802 28.331-24.094 0-7.1433-4.4797-20.461-26.878-20.461-3.1479 0-11.623 1.2107-16.466 1.2107-6.0537 0-9.4437-0.4843-15.497-0.60537-0.72644 0.72644-0.72644 2.0582 0 2.7847 8.4751 0.36322 10.291 0.96859 10.412 11.018s0.24215 15.982 0.24215 26.031 0 15.618-0.24215 25.668c-0.24215 10.17-1.9372 10.654-10.412 11.018-0.72644 0.72644-0.72644 2.0582 0 2.7847 5.9326-0.12107 9.5648-0.60536 15.74-0.60536 6.7801 0 11.139 0.48429 17.192 0.60536 0.72644-0.72644 0.72644-2.0582 0-2.7847-8.3541-0.48429-12.35-1.0897-12.471-8.1119-0.12107-9.0805-0.24215-16.829-0.24215-25.547zm0.24215-34.748c0.12107-3.5111 2.0582-5.8115 10.776-5.8115 8.3541 0 16.95 4.3586 16.95 19.735 0 13.076-6.659 19.009-18.403 19.009-2.9058 0-7.9908-0.24215-9.5648-0.60537v-0.60536c0-10.049 0.12108-21.672 0.24215-31.721z"/>
       <path d="m647.32 664.95-14.166 0.12107s-0.12107-16.466 0.24215-26.394c0.12107-2.9058 1.574-5.3272 4.4797-5.3272h18.887c9.0805 0 10.897 6.4169 13.56 14.771 1.4529 0.24214 1.695 0 2.9058-0.60537-0.60537-4.964-2.4215-16.95-2.6636-17.919 0-0.24214-0.12107-0.36322-0.48429-0.36322-2.0582 0.36322-3.1479 0.84752-6.0537 0.84752h-35.353c-3.6322 0-9.6859-0.4843-15.74-0.60537-0.72644 0.72644-0.72644 2.0582 0 2.7847 8.4751 0.36322 10.049 0.96859 10.412 11.018 0.24215 9.928 0.24215 15.982 0.24215 26.031s0 15.74-0.24215 25.668c-0.36322 10.049-1.9372 10.654-10.412 11.018-0.72644 0.72644-0.72644 2.0582 0 2.7847 5.9326-0.12107 12.35-0.60536 15.982-0.60536h26.878c5.8115 0 15.497 0.60536 15.497 0.60536 1.695-6.0537 3.3901-14.408 4.3586-20.582-1.2107-0.72644-1.3318-0.96859-2.9058-0.60537-2.4215 8.7173-6.7801 17.435-15.982 17.435h-18.887c-2.6636 0-4.3586-1.9372-4.4797-5.2062-0.36322-10.17-0.24215-31.358-0.24215-31.358l14.166 0.12108c10.291 0.12107 10.776 2.6636 11.139 8.1119 0.72644 0.72644 1.9372 0.72644 2.6636 0-0.12108-4.2376-0.4843-5.6904-0.4843-9.4437 0-3.9954 0.36322-6.7801 0.4843-10.412-0.72644-0.72644-1.9372-0.72644-2.6636 0-0.36322 6.659-0.84751 8.1119-11.139 8.1119z"/>
      </g>
      <g transform="matrix(.1186 0 0 .1186 1.9833 81.944)">
       <path d="m139.06 694.98c-0.24215-9.928-0.36322-15.497-0.36322-25.547s0-15.982 0.36322-26.152c0.24215-10.049 1.9372-10.412 10.412-11.018 0.72644-0.72644 0.72644-2.0582 0-2.7847-4.4797 0.24215-11.986 0.60537-15.618 0.60537s-11.865-0.36322-15.74-0.60537c-0.72644 0.72644-0.72644 2.0582 0 2.7847 8.4751 0.72644 10.412 0.96859 10.654 11.018 0.24215 10.049 0.36322 15.982 0.36322 26.031s-0.12107 15.618-0.36322 25.668c-0.24214 10.049-2.1793 10.654-10.654 11.018-0.72644 0.72644-0.72644 2.0582 0 2.7847 4.7219-0.24214 12.107-0.60536 15.74-0.60536s10.654 0.24214 15.618 0.60536c0.72644-0.72644 0.72644-2.0582 0-2.7847-8.4751-0.36322-10.17-0.96859-10.412-11.018z"/>
       <path d="m222.38 644.61 0.12107 42.012c0 2.3004-0.60537 3.6322-1.4529 3.6322-0.96859 0-2.3004-2.1793-5.8115-6.659l-41.528-53.514-15.618-0.24215c-0.72645 0.72644-0.72645 2.0582 0 2.7847 5.8115 0.36322 8.8384 4.2376 10.17 8.9594l-0.12108 52.062c0 10.776-2.0582 11.502-10.533 12.349-0.72644 0.72644-0.72644 2.0582 0 2.7847 5.9326-0.12107 7.9908-0.60536 13.076-0.60536 5.0851 0 6.9012 0.48429 12.955 0.60536 0.72644-0.72644 0.72644-2.0582 0-2.7847-8.4751-0.84751-10.533-1.3318-10.533-12.349l-0.12108-38.622c0-4.1165 0.60537-5.9326 1.574-5.9326 0.72644 0 2.0582 1.3318 4.1165 3.9954l42.255 53.393c1.3318 1.8161 2.9058 2.9058 4.8429 2.9058 1.695 0 1.4529-1.4529 1.4529-3.7533l0.12107-61.021c0-10.776 2.0582-11.502 10.533-12.35 0.72644-0.72644 0.72644-2.0582 0-2.7847-5.9326 0.12107-7.9908 0.60537-13.076 0.60537-5.0851 0-6.9012-0.4843-12.955-0.60537-0.72644 0.72644-0.72644 2.0582 0 2.7847 8.4752 0.84751 10.533 1.3318 10.533 12.35z"/>
       <path d="m265.81 694.98c-0.24215-9.6859-0.36322-15.255-0.36322-24.82 4.2376 0.12107 8.4751 2.0582 11.018 5.2062l19.009 23.973c2.4215 3.1479 4.1165 6.7801 4.3586 8.7173 0 0.36322 0.12107 0.72644 0.60537 0.72644 2.4215-0.12107 2.1793-0.60536 5.8115-0.60536 4.7219 0 7.7487 0.48429 13.439 0.60536 0.72644-0.72644 0.72644-2.0582 0-2.7847-2.1793-0.36322-7.7487-1.574-11.865-6.659l-26.515-31.479c-0.96859-1.0897-1.574-2.0582-1.574-3.0268 0-0.84752 0.12107-1.695 4.2376-5.9326l17.798-18.282c5.5694-5.9326 11.623-7.7487 16.466-8.3541 0.72644-0.72644 0.72644-2.0582 0-2.7847-5.6904 0.12107-7.8698 0.60537-12.713 0.60537s-8.5962-0.4843-14.287-0.60537c-0.72644 0.72644-0.72644 2.0582 0 2.7847 4.3586 0.36322 9.5648 2.4215 4.6008 7.8698l-19.372 21.309c-2.5426 2.7847-6.538 4.964-11.018 5.3272 0-8.4751 0.12107-14.287 0.36322-23.488 0.24215-10.049 2.0582-10.654 10.533-11.018 0.72644-0.72644 0.72644-2.0582 0-2.7847-5.9326 0.12107-9.6859 0.60537-15.861 0.60537-6.0537 0-9.4437-0.4843-15.497-0.60537-0.72644 0.72644-0.72644 2.0582 0 2.7847 8.4751 0.36322 10.17 0.96859 10.412 11.018s0.48429 15.982 0.48429 26.031-0.24214 15.618-0.48429 25.668c-0.24215 10.049-1.9372 10.654-10.412 11.018-0.72644 0.72644-0.72644 2.0582 0 2.7847 5.9326-0.12107 9.5648-0.60536 15.74-0.60536 6.0537 0 9.5648 0.48429 15.618 0.60536 0.72644-0.72644 0.72644-2.0582 0-2.7847-8.4751-0.36322-10.291-0.96859-10.533-11.018z"/>
       <path d="m368.54 631.78c-7.0223-0.96859-6.659-3.269-18.524-3.269-12.228 0-23.004 8.1119-23.004 20.946 0 11.381 7.9908 16.829 17.435 20.825 7.6276 3.3901 20.219 6.0537 20.219 19.856 0 9.807-5.8115 16.103-15.376 16.103-11.381 0-19.856-6.2958-22.52-18.403-1.4529-0.48429-1.574-0.24215-2.6636 0.36322 0.4843 9.3227 0.96859 12.471 2.4215 18.403 7.6276 0 10.897 2.7847 21.672 2.7847 5.5694 0 10.776-1.3318 15.013-3.8744 6.9012-4.3586 11.381-11.865 11.381-19.614 0-11.502-7.8698-16.95-16.708-20.704-5.8115-2.4215-22.52-7.1433-22.52-19.009 0-6.7801 6.4169-14.771 13.439-14.771 11.865 0 16.829 8.7173 19.251 16.708 1.3318 0 1.574 0.12107 2.6636-0.72644-0.36322-5.8115-0.84752-9.2016-2.1793-15.618z"/>
       <path d="m421.98 709.39c11.744 0 23.73-5.5694 31.963-16.345-0.60537-1.0897-1.4529-1.8161-2.7847-1.8161-8.5962 9.4437-16.829 13.197-28.089 13.197-18.766 0-28.21-19.009-28.21-36.685 0-19.735 12.592-35.959 27.847-35.959 16.708 0 23.851 11.139 26.999 21.551 1.0897 0.12107 1.8161 0 2.7847-0.60537-0.60537-6.2958-1.4529-12.107-2.6636-18.766-6.1748-0.60537-11.623-5.4483-26.515-5.4483-23.973 0-39.349 18.766-39.349 41.528 0 21.43 11.986 39.349 38.017 39.349z"/>
       <path d="m489.71 674.52c-2.6636 0-3.5111-0.96859-3.0268-2.1793l12.713-31.358h0.36322l11.623 33.537zm-13.681 25.304 7.2644-18.766c0.60537-1.574 1.3318-2.6636 4.2376-2.6636h25.304l7.6276 22.278c1.695 4.964-3.1479 4.964-8.9594 5.3272-0.72644 0.72644-0.72644 2.0582 0 2.7847 4.4797-0.12107 11.139-0.60536 15.861-0.60536 4.964 0 10.17 0.48429 14.65 0.60536 0.72644-0.72644 0.72644-2.0582 0-2.7847-4.7219-0.36322-8.7173-0.84751-10.897-7.0223l-25.304-70.465c-1.8161 1.0897-4.7219 2.4215-6.2958 2.4215l-28.089 66.106c-3.1479 7.3855-6.7801 8.5962-12.107 8.9594-0.72644 0.72644-0.72644 2.0582 0 2.7847 4.4797-0.12107 7.2644-0.60536 11.986-0.60536 4.964 0 8.5962 0.48429 13.076 0.60536 0.72644-0.72644 0.72644-2.0582 0-2.7847-4.6008-0.24214-10.291-1.0897-8.3541-6.1748z"/>
       <path d="m565.53 672.34c2.6636 0.84752 6.1748 1.0897 10.291 1.0897 22.035 0 28.331-13.802 28.331-24.094 0-7.1433-4.4797-20.461-26.878-20.461-3.1479 0-11.623 1.2107-16.466 1.2107-6.0537 0-9.4437-0.4843-15.497-0.60537-0.72644 0.72644-0.72644 2.0582 0 2.7847 8.4751 0.36322 10.291 0.96859 10.412 11.018s0.24215 15.982 0.24215 26.031 0 15.618-0.24215 25.668c-0.24215 10.17-1.9372 10.654-10.412 11.018-0.72644 0.72644-0.72644 2.0582 0 2.7847 5.9326-0.12107 9.5648-0.60536 15.74-0.60536 6.7801 0 11.139 0.48429 17.192 0.60536 0.72644-0.72644 0.72644-2.0582 0-2.7847-8.3541-0.48429-12.35-1.0897-12.471-8.1119-0.12107-9.0805-0.24215-16.829-0.24215-25.547zm0.24215-34.748c0.12107-3.5111 2.0582-5.8115 10.776-5.8115 8.3541 0 16.95 4.3586 16.95 19.735 0 13.076-6.659 19.009-18.403 19.009-2.9058 0-7.9908-0.24215-9.5648-0.60537v-0.60536c0-10.049 0.12108-21.672 0.24215-31.721z"/>
       <path d="m647.32 664.95-14.166 0.12107s-0.12107-16.466 0.24215-26.394c0.12107-2.9058 1.574-5.3272 4.4797-5.3272h18.887c9.0805 0 10.897 6.4169 13.56 14.771 1.4529 0.24214 1.695 0 2.9058-0.60537-0.60537-4.964-2.4215-16.95-2.6636-17.919 0-0.24214-0.12107-0.36322-0.48429-0.36322-2.0582 0.36322-3.1479 0.84752-6.0537 0.84752h-35.353c-3.6322 0-9.6859-0.4843-15.74-0.60537-0.72644 0.72644-0.72644 2.0582 0 2.7847 8.4751 0.36322 10.049 0.96859 10.412 11.018 0.24215 9.928 0.24215 15.982 0.24215 26.031s0 15.74-0.24215 25.668c-0.36322 10.049-1.9372 10.654-10.412 11.018-0.72644 0.72644-0.72644 2.0582 0 2.7847 5.9326-0.12107 12.35-0.60536 15.982-0.60536h26.878c5.8115 0 15.497 0.60536 15.497 0.60536 1.695-6.0537 3.3901-14.408 4.3586-20.582-1.2107-0.72644-1.3318-0.96859-2.9058-0.60537-2.4215 8.7173-6.7801 17.435-15.982 17.435h-18.887c-2.6636 0-4.3586-1.9372-4.4797-5.2062-0.36322-10.17-0.24215-31.358-0.24215-31.358l14.166 0.12108c10.291 0.12107 10.776 2.6636 11.139 8.1119 0.72644 0.72644 1.9372 0.72644 2.6636 0-0.12108-4.2376-0.4843-5.6904-0.4843-9.4437 0-3.9954 0.36322-6.7801 0.4843-10.412-0.72644-0.72644-1.9372-0.72644-2.6636 0-0.36322 6.659-0.84751 8.1119-11.139 8.1119z"/>
      </g>
     </g>
     <g transform="matrix(.48949 0 0 .48949 74.715 45.785)">
      <g transform="matrix(.11149 0 0 .11149 27.644 109.91)" fill="#fff" filter="url(#fe)">
       <path d="m163.15 27.83-134.34 137.47c-45.39 56.21 30.89 49.67 63.59 65.86 11.73 11.99-44.96 20.84-33.23 32.84 11.73 11.99 70.93 23.1 82.68 35.09 11.73 11.99-24.01 24.71-12.28 36.7s38.86 0.63 43.94 28.31c3.62 19.78 48.89 8.5 71.03-7.7 11.73-12-22.44-10.87-10.71-22.86 29.17-29.83 56.33-10.84 66.31-40.73 4.93-14.77-42.94-22.77-31.19-34.76 33.75-19.71 150.4-32.54 95.05-87.89l-139.25-142.33c-17.03-16.35-45.45-16.53-61.6 0zm154.31 264.98c0 6.82 50.25 11.29 50.25-1.61-7.16-20.72-44.31-19.32-50.25 1.61zm-226.36 36.24c11.9 10.29 30.28-2.56 35.79-16.92-11.53-15.32-54.69 0.55-35.79 16.92zm220.06-22.23c-15.34 13.76 1.72 27.72 16.84 18.83 3.37-3.42-0.09-15.41-16.84-18.83z"/>
       <path d="m131 238.6c3.59 2.23 57.89 13.26 71.16 15.46 4.6 0.97 1.34 5.71-5 8.91-14.3 3.8-83.66-24.37-66.16-24.37z"/>
       <path d="m216.63 37.47 53.15 53.98c5.04 5.15 4.97 15.13 2.15 18l-26.39-21.11-5.19 31.26-22.05-11.64-35.31 22.31-11.69-47.03-18.97 32.82h-29c-11.82 0-13.21-15-2.47-25.74 18.76-20.25 40.29-40.89 51.99-52.85 11.76-12.02 32.25-11.68 43.78 0z"/>
      </g>
      <g transform="matrix(.11149 0 0 .11149 27.117 109.91)">
       <path d="m163.15 27.83-134.34 137.47c-45.39 56.21 30.89 49.67 63.59 65.86 11.73 11.99-44.96 20.84-33.23 32.84 11.73 11.99 70.93 23.1 82.68 35.09 11.73 11.99-24.01 24.71-12.28 36.7s38.86 0.63 43.94 28.31c3.62 19.78 48.89 8.5 71.03-7.7 11.73-12-22.44-10.87-10.71-22.86 29.17-29.83 56.33-10.84 66.31-40.73 4.93-14.77-42.94-22.77-31.19-34.76 33.75-19.71 150.4-32.54 95.05-87.89l-139.25-142.33c-17.03-16.35-45.45-16.53-61.6 0zm154.31 264.98c0 6.82 50.25 11.29 50.25-1.61-7.16-20.72-44.31-19.32-50.25 1.61zm-226.36 36.24c11.9 10.29 30.28-2.56 35.79-16.92-11.53-15.32-54.69 0.55-35.79 16.92zm220.06-22.23c-15.34 13.76 1.72 27.72 16.84 18.83 3.37-3.42-0.09-15.41-16.84-18.83z"/>
       <path d="m131 238.6c3.59 2.23 57.89 13.26 71.16 15.46 4.6 0.97 1.34 5.71-5 8.91-14.3 3.8-83.66-24.37-66.16-24.37z" fill="#fff"/>
       <path d="m216.63 37.47 53.15 53.98c5.04 5.15 4.97 15.13 2.15 18l-26.39-21.11-5.19 31.26-22.05-11.64-35.31 22.31-11.69-47.03-18.97 32.82h-29c-11.82 0-13.21-15-2.47-25.74 18.76-20.25 40.29-40.89 51.99-52.85 11.76-12.02 32.25-11.68 43.78 0z" fill="#fff"/>
      </g>
     </g>
     <g fill="#fff">
      <g transform="matrix(.39276 0 0 .39276 -55.547 -81.786)" filter="url(#fw)">
       <path d="m291 530.77v15.118h1.2962l2.5925-5.2529 5.1113 8.7256h4l-6.5188-9.9266h6.1177v-1.6176l-12.599-8.4558z" fill="#fff" stroke-width="1.1541"/>
      </g>
      <g transform="matrix(.37003 0 0 .37003 28.449 -79.893)" filter="url(#fw)">
       <g fill="#fff">
        <path d="m307.03 557.4c-8.091-0.50569-12.862 1.4433-15.904 4.2266-3.4618 3.1673-4.6306 7.7444-4.127 15.803l1-0.0625c-0.49635-7.9416 0.60776-12.079 3.8027-15.002 2.8329-2.5918 7.257-4.4611 15.166-3.9668z" color="#000000" color-rendering="auto" dominant-baseline="auto" enable-background="accumulate" image-rendering="auto" shape-rendering="auto" solid-color="#000000" style="font-feature-settings:normal;font-variant-alternates:normal;font-variant-caps:normal;font-variant-ligatures:normal;font-variant-numeric:normal;font-variant-position:normal;isolation:auto;mix-blend-mode:normal;shape-padding:0;text-decoration-color:#000000;text-decoration-line:none;text-decoration-style:solid;text-indent:0;text-orientation:mixed;text-transform:none;white-space:normal"/>
        <g fill-rule="evenodd" stroke-width="1.1541">
         <rect x="289" y="559.36" width="4" height="4" color="#000000"/>
         <rect id="fn" x="286" y="575.36" width="3" height="3" color="#000000" fill="#fff" fill-rule="evenodd" stroke-width="1.1541"/>
         <path d="m294 564.36 7.8 14.039 5.2-5.2646z"/>
        </g>
       </g>
       <use transform="translate(19 -19)" width="1250" height="1250" fill="#ffffff" stroke-width="1.1541" xlink:href="#fn"/>
      </g>
      <g transform="matrix(.3312 0 0 .3312 55.601 -140.64)" filter="url(#fw)">
       <path d="m285 805.36v0.5c6.7457 2.1875-0.9774 11.462 0.8919 19 2.1081 8.5 6.286 2 6.286 2s-0.1779-2.5-0.4216-1.5c0 0-2.7563 4-3.7563-1-1.6756-8.3781 12.6-19-3-19z"/>
       <path d="m309 809.36 0.0374 3.4451-5.0824-5.4624 1.7099-1.8525m-2.7074 2.9449 2.0425 2.185 0.9975 1.0925 2.0424 2.185-1.045 1.0925c-1.0131 1.0911-0.9818 1.0951-1.9949 4.3699-4.0529 4.3646-8.1224 4.3699-8.1224 4.3699l-0.9975 1.0925s-1.0293 1.0911-2.0425 0l6.0799-6.5549 0.095-0.1424c0.8018 0.4211 1.7564 0.289 2.4225-0.4275 0.8395-0.9042 0.8389-2.3747 0-3.2775s-2.2004-0.9041-3.0399 0c-0.666 0.7168-0.7715 1.7967-0.38 2.66l-0.095 0.095-6.0799 6.5549c-1.0132-1.0912 0-2.185 0-2.185l0.9974-1.0925s-0.0154-4.3753 4.0375-8.7398c3.0401-1.0925 3.0717-1.0938 4.0849-2.185z"/>
      </g>
      <g transform="matrix(.35506 0 0 .35506 -73.017 -116.49)" filter="url(#fw)">
       <g transform="matrix(1.1525 0 0 1.1677 -234.55 477.09)">
        <path transform="matrix(.86765 0 0 .85635 202.67 29.352)" d="m294.5 171-8.5 6.6562 3 10.344h1.9375l1.0777-2.0366c-0.5545-0.01-0.9759 0.041-1.5291 0.081l-2.558-7.6907 6.6237-5.2651 4.9785 3.9116 1.3447-1z" color="#000000" fill="#fff" stroke-width="1.1369"/>
       </g>
       <path transform="translate(0 512.36)" d="m302.59 174.03-5.125 4.7813-6.625-1.7188 2.8438 6.4063-3.6875 5.9062 6.9062-0.8125 4.3125 5.4063 1.4063-7 6.4062-1.7045-6.0625-4.2955zm-1.2651 3.4549 0.25 4.4201 4.0678 2.7027-4.154 0.9987-1.013 5.1714-2.7607-3.5473-4.9839 0.3728 3.15-3.9924-2.5433-4.4558 4.6638 1.3071z" color="#000000" fill-rule="evenodd"/>
      </g>
      <g transform="matrix(.32278 0 0 .32451 -48.061 -124.97)" filter="url(#fw)">
       <g fill-rule="evenodd" stroke-width="1.1541">
        <path d="m299.31 788.82-1.5844 4.509c-0.4193 1.2247 1.2997 1.8792 1.7357 0.6094l1.7599-4.4746z"/>
        <path d="m298.31 782.76 0.7935 1.1812 5.9242 2.4229 1.5611-0.5092 1.9892-5.5024c-2.5 0-0.5-6-7-6z"/>
        <path d="m299 785.36-0.7016 2 5 1.8992 0.7016-1.8992z"/>
       </g>
       <path d="m286.46 775.36 0.64844 0.78515s3.305 4.0034 5.1426 8.1816c0.91881 2.0891 1.4446 4.2102 1.0938 5.8164-0.35086 1.6062-1.4727 2.8009-4.2676 3.2656l0.15821 0.94531c3.0358-0.50475 4.6191-2.0494 5.0469-4.0078s-0.19599-4.2273-1.1543-6.4062c-1.6237-3.6919-3.9173-6.6468-4.6934-7.6211h10.086v-0.95898z" color="#000000" color-rendering="auto" dominant-baseline="auto" enable-background="accumulate" image-rendering="auto" shape-rendering="auto" solid-color="#000000" style="font-feature-settings:normal;font-variant-alternates:normal;font-variant-caps:normal;font-variant-ligatures:normal;font-variant-numeric:normal;font-variant-position:normal;isolation:auto;mix-blend-mode:normal;shape-padding:0;text-decoration-color:#000000;text-decoration-line:none;text-decoration-style:solid;text-indent:0;text-orientation:mixed;text-transform:none;white-space:normal"/>
       <path d="m286 793.36h4v4h-4z" color="#000000" fill-rule="evenodd" stroke-width="1.1575"/>
       <path d="m287 795.32v1.1172h9v-1.1172z" color="#000000" color-rendering="auto" dominant-baseline="auto" enable-background="accumulate" image-rendering="auto" shape-rendering="auto" solid-color="#000000" style="font-feature-settings:normal;font-variant-alternates:normal;font-variant-caps:normal;font-variant-ligatures:normal;font-variant-numeric:normal;font-variant-position:normal;isolation:auto;mix-blend-mode:normal;shape-padding:0;text-decoration-color:#000000;text-decoration-line:none;text-decoration-style:solid;text-indent:0;text-orientation:mixed;text-transform:none;white-space:normal"/>
       <rect transform="translate(0 512.36)" x="286" y="262" width="4" height="4" stroke-width="1.1541"/>
      </g>
      <g transform="matrix(.35506 0 0 .35506 63.689 -237.24)" filter="url(#fw)">
       <g fill-rule="evenodd">
        <path d="m303 1029.4v-2c-0.5069-1.555-3-1-3 0v2z"/>
        <path d="m306.96 1035.2-0.9558-0.884h-9l-0.9712 1.413-0.029 6.587c2.8952 1.823 3.7348 4.575 11 2z"/>
        <path d="m306 1033.4-2-3h-5l-2 3z"/>
       </g>
       <g transform="translate(-.082947 -.72362)">
        <circle id="fd" transform="matrix(.43572 0 0 .43572 206.83 803.64)" cx="206.59" cy="518.42" r=".92537" color="#000000" fill="#fff" stroke-width=".26488"/>
        <use id="fb" transform="matrix(1.0586 0 0 1.0586 -18.175 -59.249)" width="744.09448" height="1052.3621" fill="#ffffff" stroke-width="1.1541" xlink:href="#fd"/>
        <use id="fm" transform="translate(0 -2.2082)" width="744.09448" height="1052.3621" fill="#ffffff" stroke-width="1.1541" xlink:href="#fb"/>
        <use id="fl" transform="matrix(1.3763 0 0 1.3763 -112.79 -386.94)" width="744.09448" height="1052.3621" fill="#ffffff" stroke-width="1.1541" xlink:href="#fb"/>
        <use id="fc" transform="matrix(1.3763 0 0 1.3763 -113.13 -387.87)" width="744.09448" height="1052.3621" fill="#ffffff" stroke-width="1.1541" xlink:href="#fm"/>
        <circle id="fk" transform="matrix(.63484 0 0 .63484 162.59 700.42)" cx="206.59" cy="518.42" r=".92537" color="#000000" fill="#fff" stroke-width=".26488"/>
        <g fill="#fff" stroke-width="1.1541">
         <use id="fj" transform="matrix(1.5012 0 0 1.5012 -149.66 -516.04)" width="744.09448" height="1052.3621" fill="#ffffff" stroke-width="1.1541" xlink:href="#fl"/>
         <use id="fi" transform="matrix(1.5012 0 0 1.5012 -149.79 -515.97)" width="744.09448" height="1052.3621" fill="#ffffff" stroke-width="1.1541" xlink:href="#fc"/>
         <use id="fh" transform="matrix(1.5012 0 0 1.5012 -149.54 -516.03)" width="744.09448" height="1052.3621" fill="#ffffff" stroke-width="1.1541" xlink:href="#fk"/>
         <use transform="matrix(1.4856 0 0 1.4856 -145.24 -499.74)" width="744.09448" height="1052.3621" xlink:href="#fj"/>
         <use transform="matrix(1.4856 0 0 1.4856 -145.04 -499.68)" width="744.09448" height="1052.3621" xlink:href="#fi"/>
         <use transform="matrix(1.4856 0 0 1.4856 -144.99 -499.98)" width="744.09448" height="1052.3621" xlink:href="#fh"/>
         <use id="fg" transform="translate(-4.2358 -1.3033)" width="744.09448" height="1052.3621" fill="#ffffff" stroke-width="1.1541" xlink:href="#fd"/>
         <use transform="translate(.44802 2.6881)" width="744.09448" height="1052.3621" xlink:href="#fg"/>
         <use id="ff" transform="translate(-4.7246)" width="744.09448" height="1052.3621" fill="#ffffff" stroke-width="1.1541" xlink:href="#fc"/>
         <use transform="translate(.69239 4.1136)" width="744.09448" height="1052.3621" xlink:href="#ff"/>
         <use transform="translate(-.73484 -1.0442)" width="744.09448" height="1052.3621" xlink:href="#fb"/>
        </g>
       </g>
      </g>
     </g>
    </g>
    <g transform="matrix(.14025 0 0 .14025 -28.096 59.286)" enable-background="new" fill="#de5f3a" stroke-width="2.2059">
     <path d="m1091.9 573.82q0-4.2318-1.7562-6.5594-1.735-2.3275-4.8878-2.3275-3.1315 0-4.8879 2.3275-1.735 2.3275-1.735 6.5594 0 4.2108 1.735 6.5383 1.7564 2.3275 4.8879 2.3275 3.1528 0 4.8878-2.3275 1.7562-2.3275 1.7562-6.5383zm3.8933 9.1832q0 6.0515-2.6872 8.9927-2.6873 2.9623-8.2309 2.9623-2.0525 0-3.8723-0.31745-1.8196-0.29624-3.5335-0.93097v-3.7876q1.7139 0.93098 3.3855 1.3753 1.6715 0.44392 3.4066 0.44392 3.8298 0 5.7342-2.0101 1.9043-1.989 1.9043-6.0305v-1.9255q-1.2061 2.0948-3.0893 3.1316-1.8831 1.0368-4.5069 1.0368-4.3588 0-7.0249-3.322-2.666-3.3221-2.666-8.8023 0-5.5014 2.666-8.8234 2.6661-3.322 7.0249-3.322 2.6238 0 4.5069 1.0367 1.8832 1.0368 3.0893 3.1316v-3.5971h3.8933zm-22.852-17.118q-0.6561-0.38111-1.4388-0.55003-0.7613-0.19013-1.6928-0.19013-3.3008 0-5.0781 2.1583-1.7563 2.137-1.7563 6.1573v12.484h-3.9145v-23.698h3.9145v3.6817q1.2272-2.1583 3.1951-3.195 1.9678-1.058 4.7821-1.058 0.4022 0 0.8885 0.0595 0.4864 0.0424 1.0792 0.14769zm-31.04-0.90983q-3.1317 0-4.9514 2.4544-1.8197 2.4334-1.8197 6.6863 0 4.253 1.7985 6.7075 1.8198 2.4333 4.9726 2.4333 3.1103 0 4.93-2.4544 1.8198-2.4545 1.8198-6.6864 0-4.2107-1.8198-6.6651-1.8197-2.4756-4.93-2.4756zm0-3.3009q5.078 0 7.977 3.3009 2.8988 3.3008 2.8988 9.1408 0 5.8188-2.8988 9.1408-2.899 3.3009-7.977 3.3009-5.0995 0-7.9983-3.3009-2.8777-3.322-2.8777-9.1408 0-5.8399 2.8777-9.1408 2.8988-3.3009 7.9983-3.3009zm-22.429 18.895h4.4646v5.3745h-4.4646zm-6.9403-7.448v1.9044h-17.901q0.2538 4.0202 2.4121 6.1361 2.1794 2.0948 6.0516 2.0948 2.2428 0 4.3377-0.55002 2.116-0.55003 4.1896-1.6504v3.6817q-2.0949 0.88871-4.2954 1.3542-2.2006 0.46515-4.4647 0.46515-5.6706 0-8.9926-3.3008-3.3008-3.3008-3.3008-8.9292 0-5.8188 3.1315-9.2254 3.1527-3.4278 8.4849-3.4278 4.782 0 7.554 3.0892 2.7929 3.0681 2.7929 8.3579zm-3.8933-1.1426q-0.043-3.1951-1.7986-5.0994-1.735-1.9043-4.6126-1.9043-3.2585 0-5.2264 1.8408-1.9466 1.8409-2.2429 5.184zm-40.118 10.41v12.569h-3.9145v-32.712h3.9145v3.5971q1.2272-2.1159 3.0892-3.1316 1.8832-1.0368 4.4858-1.0368 4.3164 0 7.0037 3.4278 2.7084 3.4278 2.7084 9.0139t-2.7084 9.0139q-2.6872 3.4278-7.0037 3.4278-2.6026 0-4.4858-1.0156-1.862-1.0368-3.0892-3.1527zm13.246-8.2733q0-4.2953-1.7774-6.7286-1.7562-2.4545-4.8454-2.4545t-4.8666 2.4545q-1.7562 2.4333-1.7562 6.7286 0 4.2954 1.7562 6.7498 1.7774 2.4334 4.8666 2.4334t4.8454-2.4334q1.7774-2.4544 1.7774-6.7498zm-32.818-0.0849q-4.7185 0-6.5382 1.0792-1.8198 1.0791-1.8198 3.6817 0 2.0736 1.3542 3.3008 1.3754 1.2061 3.7241 1.2061 3.2374 0 5.184-2.2852 1.9678-2.3063 1.9678-6.115v-0.86757zm7.7654-1.6081v13.521h-3.8933v-3.5971q-1.333 2.1583-3.322 3.1951-1.989 1.0156-4.8666 1.0156-3.6394 0-5.7976-2.0313-2.1371-2.0524-2.1371-5.4802 0-3.9991 2.6661-6.0304 2.6872-2.0313 7.9982-2.0313h5.459v-0.38112q0-2.6872-1.7773-4.1473-1.7563-1.4811-4.9513-1.4811-2.0313 0-3.9568 0.48637-1.9255 0.48636-3.7029 1.46v-3.5971q2.1371-0.82505 4.1473-1.2273 2.0102-0.4227 3.9144-0.4227 5.1417 0 7.6808 2.666 2.5391 2.6661 2.5391 8.0829zm-25.349-9.2678v3.6394q-1.6504-0.90984-3.322-1.3542-1.6504-0.46515-3.3432-0.46515-3.7875 0-5.8822 2.4122-2.0948 2.391-2.0948 6.7286 0 4.3377 2.0948 6.7498 2.0948 2.391 5.8822 2.391 1.6928 0 3.3432-0.44393 1.6716-0.46515 3.322-1.3753v3.5971q-1.6292 0.76138-3.3855 1.1426-1.7351 0.38111-3.7028 0.38111-5.3534 0-8.5061-3.3643t-3.1527-9.0773q0-5.7976 3.1739-9.1196 3.195-3.322 8.7388-3.322 1.7986 0 3.5125 0.38111 1.7139 0.3599 3.322 1.1002zm-24.545-0.21136v3.6818q-1.6504-0.84626-3.4277-1.2696-1.7774-0.42356-3.6817-0.42356-2.8989 0-4.3589 0.88871-1.4388 0.8887-1.4388 2.666 0 1.3542 1.0368 2.1371 1.0368 0.76139 4.1684 1.46l1.333 0.29623q4.1473 0.8887 5.8823 2.518 1.7562 1.6081 1.7562 4.5069 0 3.3008-2.6238 5.2264-2.6025 1.9254-7.173 1.9254-1.9044 0-3.978-0.38111-2.0525-0.35989-4.3377-1.1003v-4.0202q2.1583 1.1214 4.253 1.6927 2.0947 0.55003 4.1472 0.55003 2.7506 0 4.2318-0.93106 1.4812-0.95211 1.4812-2.666 0-1.5869-1.0791-2.4334-1.058-0.84626-4.6762-1.6292l-1.3542-0.31746q-3.6182-0.76138-5.2263-2.3275-1.6082-1.5869-1.6082-4.3376 0-3.3432 2.3699-5.1629 2.3698-1.8197 6.7286-1.8197 2.1583 0 4.0626 0.31745 1.9044 0.31746 3.5124 0.95212zm-40.393-9.9237h3.9145v19.445l11.616-10.22h4.9724l-12.569 11.088 13.098 12.611h-5.0783l-12.04-11.574v11.574h-3.9145zm-7.6596 18.62v14.304h-3.8933v-14.177q0-3.3643-1.3119-5.0359-1.3118-1.6716-3.9356-1.6716-3.1527 0-4.9724 2.0101-1.8198 2.0102-1.8198 5.4803v13.394h-3.9144v-23.698h3.9144v3.6817q1.3966-2.137 3.2797-3.195 1.9044-1.058 4.38-1.058 4.0837 0 6.1785 2.539 2.0948 2.518 2.0948 7.4269zm-32.31-17.287h4.2742v31.591h-4.2742zm-13.415 26.216h4.4646v5.3745h-4.4646zm-34.299-18.324h3.8933l4.8666 18.493 4.8455-18.493h4.5916l4.8666 18.493 4.8454-18.493h3.8933l-6.1997 23.698h-4.5916l-5.0994-19.424-5.1205 19.424h-4.5916zm-35.463 0h3.8932l4.8666 18.493 4.8455-18.493h4.5916l4.8667 18.493 4.8455-18.493h3.8932l-6.1996 23.698h-4.5916l-5.0994-19.424-5.1206 19.424h-4.5916zm-35.463 0h3.8933l4.8666 18.493 4.8454-18.493h4.5916l4.8666 18.493 4.8455-18.493h3.8933l-6.1997 23.698h-4.5916l-5.0994-19.424-5.1205 19.424h-4.5916z" dominant-baseline="auto" enable-background="new" style="font-feature-settings:normal;font-variant-alternates:normal;font-variant-caps:normal;font-variant-ligatures:normal;font-variant-numeric:normal;font-variant-position:normal;shape-padding:0;text-decoration-color:#000000;text-decoration-line:none;text-decoration-style:solid;text-indent:0;text-orientation:mixed;text-transform:none;white-space:normal"/>
     <path d="m701.84 545.72v3.0688h398.9v-3.0688z" color="#000000" color-rendering="auto" dominant-baseline="auto" enable-background="new" image-rendering="auto" shape-rendering="auto" solid-color="#000000" style="font-feature-settings:normal;font-variant-alternates:normal;font-variant-caps:normal;font-variant-ligatures:normal;font-variant-numeric:normal;font-variant-position:normal;isolation:auto;mix-blend-mode:normal;shape-padding:0;text-decoration-color:#000000;text-decoration-line:none;text-decoration-style:solid;text-indent:0;text-orientation:mixed;text-transform:none;white-space:normal"/>
    </g>
   </g>
  </g>
 </g>
</svg>
