<?xml version="1.0" encoding="UTF-8"?>
<svg width="300" height="101" version="1.1" viewBox="0 0 300 101" xmlns="http://www.w3.org/2000/svg" xmlns:xlink="http://www.w3.org/1999/xlink">
 <text x="150" y="99.753128" display="block" fill="#000000" font-family="'Liberation Sans',Arial,sans-serif" stroke-width="1pt" text-align="center" text-anchor="middle" style="line-height:0%" xml:space="preserve"><tspan x="150" y="99.753128" font-size="5.7038px" text-align="center" text-anchor="middle" style="line-height:1">A Bitkép vektorizálása párbeszédablak</tspan></text>
 <image x="55.359" y="-1.7236e-5" width="189.28" height="91.738" display="block" xlink:href="potrace.hu.png"/>
</svg>
